<svg xmlns="http://www.w3.org/2000/svg" width="12" height="12" viewBox="0 0 128 128">
    <circle cx="64.5" cy="64.5" r="60.5" fill="#ff5555" fill-opacity="0.7"/>
    <ellipse cx="64.5" cy="74.5" rx="40" ry="16" stroke="#DDDDDD" fill="#ff5555" stroke-width="5"/>
    <ellipse cx="64.5" cy="64.5" rx="40" ry="16" stroke="#DDDDDD" fill="#ff5555" stroke-width="5"/>
    <ellipse cx="64.5" cy="54.5" rx="40" ry="16" stroke="#DDDDDD" fill="#ff5555" stroke-width="5"/>
    <text x="49" y="63" style="font-family: monospace; font-weight: bold; font-size: 24px" fill="#BB9999">Ds</text>
</svg>
