<svg xmlns="http://www.w3.org/2000/svg" width="12" height="12" viewBox="0 0 128 128">
    <circle cx="64.5" cy="64.5" r="60.5" fill="#cc99ff" fill-opacity="0.2"/>
    <path fill-rule="evenodd" fill="white" fill-opacity="0.7"
          d="M81.726,40.3l2.6-5.4-8.133-3.8L52.66,79.9l-26-15.266L48.327,51.971,43.66,44.7,17.527,60.9v7.533L48.86,87.9l-2.667,5.467,8.2,3.733L77.86,48.3l28,16.333L84.193,77.371l4.8,7.2,26-16.133v-7.6Z"/>
</svg>
